{
  "Error":{
    "Message":"Incorrect username or password.",
    "Code":"NotAuthorizedException"
  },
  "ResponseMetadata":{
    "RequestId":"28baba36-947e-4444-ad3c-0050db53a16f",
    "HTTPStatusCode":400,
    "HTTPHeaders":{
      "date":"Fri, 08 Jul 2022 09:30:42 GMT",
      "content-type":"application/x-amz-json-1.1",
      "content-length":"79",
      "connection":"keep-alive",
      "x-amzn-requestid":"28baba36-947e-4444-ad3c-0050db53a16f",
      "x-amzn-errortype":"NotAuthorizedException:",
      "x-amzn-errormessage":"Incorrect username or password."
    },
    "RetryAttempts":0
  },
  "message":"Incorrect username or password."
}
